^C:\USERS\ADMIN\DESKTOP\CYBER_ELITE_CPP_TEMPERATURES\TEMPERATURES\CELSIUS.CPP|C:\USERS\ADMIN\DESKTOP\CYBER_ELITE_CPP_TEMPERATURES\TEMPERATURES\FAHRENHEIT.CPP|C:\USERS\ADMIN\DESKTOP\CYBER_ELITE_CPP_TEMPERATURES\TEMPERATURES\MAIN.CPP|C:\USERS\ADMIN\DESKTOP\CYBER_ELITE_CPP_TEMPERATURES\TEMPERATURES\TEMPERATURE.CPP
C:\USERS\ADMIN\DESKTOP\CYBER_ELITE_CPP_TEMPERATURES\TEMPERATURES\DEBUG\VC140.PDB
C:\USERS\ADMIN\DESKTOP\CYBER_ELITE_CPP_TEMPERATURES\TEMPERATURES\DEBUG\VC140.IDB
C:\USERS\ADMIN\DESKTOP\CYBER_ELITE_CPP_TEMPERATURES\TEMPERATURES\DEBUG\CELSIUS.OBJ
C:\USERS\ADMIN\DESKTOP\CYBER_ELITE_CPP_TEMPERATURES\TEMPERATURES\DEBUG\FAHRENHEIT.OBJ
C:\USERS\ADMIN\DESKTOP\CYBER_ELITE_CPP_TEMPERATURES\TEMPERATURES\DEBUG\TEMPERATURE.OBJ
C:\USERS\ADMIN\DESKTOP\CYBER_ELITE_CPP_TEMPERATURES\TEMPERATURES\DEBUG\MAIN.OBJ
^C:\USERS\ADMIN\DESKTOP\CYBER_ELITE_CPP_TEMPERATURES\TEMPERATURES\CELSIUS.CPP
C:\USERS\ADMIN\DESKTOP\CYBER_ELITE_CPP_TEMPERATURES\TEMPERATURES\DEBUG\VC140.PDB
C:\USERS\ADMIN\DESKTOP\CYBER_ELITE_CPP_TEMPERATURES\TEMPERATURES\DEBUG\VC140.IDB
^C:\USERS\ADMIN\DESKTOP\CYBER_ELITE_CPP_TEMPERATURES\TEMPERATURES\FAHRENHEIT.CPP
C:\USERS\ADMIN\DESKTOP\CYBER_ELITE_CPP_TEMPERATURES\TEMPERATURES\DEBUG\VC140.PDB
C:\USERS\ADMIN\DESKTOP\CYBER_ELITE_CPP_TEMPERATURES\TEMPERATURES\DEBUG\VC140.IDB
^C:\USERS\ADMIN\DESKTOP\CYBER_ELITE_CPP_TEMPERATURES\TEMPERATURES\MAIN.CPP
C:\USERS\ADMIN\DESKTOP\CYBER_ELITE_CPP_TEMPERATURES\TEMPERATURES\DEBUG\VC140.PDB
C:\USERS\ADMIN\DESKTOP\CYBER_ELITE_CPP_TEMPERATURES\TEMPERATURES\DEBUG\VC140.IDB
^C:\USERS\ADMIN\DESKTOP\CYBER_ELITE_CPP_TEMPERATURES\TEMPERATURES\TEMPERATURE.CPP
C:\USERS\ADMIN\DESKTOP\CYBER_ELITE_CPP_TEMPERATURES\TEMPERATURES\DEBUG\VC140.PDB
^C:\USERS\ADMIN\DESKTOP\CYBER_ELITE_CPP_TEMPERATURES\TEMPERATURES\CELSIUS.CPP|C:\USERS\ADMIN\DESKTOP\CYBER_ELITE_CPP_TEMPERATURES\TEMPERATURES\FAHRENHEIT.CPP|C:\USERS\ADMIN\DESKTOP\CYBER_ELITE_CPP_TEMPERATURES\TEMPERATURES\MAIN.CPP
C:\USERS\ADMIN\DESKTOP\CYBER_ELITE_CPP_TEMPERATURES\TEMPERATURES\DEBUG\VC140.PDB
C:\USERS\ADMIN\DESKTOP\CYBER_ELITE_CPP_TEMPERATURES\TEMPERATURES\DEBUG\VC140.IDB
^C:\USERS\ADMIN\DESKTOP\CYBER_ELITE_CPP_TEMPERATURES\TEMPERATURES\CELSIUS.CPP|C:\USERS\ADMIN\DESKTOP\CYBER_ELITE_CPP_TEMPERATURES\TEMPERATURES\MAIN.CPP
C:\USERS\ADMIN\DESKTOP\CYBER_ELITE_CPP_TEMPERATURES\TEMPERATURES\DEBUG\VC140.PDB
C:\USERS\ADMIN\DESKTOP\CYBER_ELITE_CPP_TEMPERATURES\TEMPERATURES\DEBUG\VC140.IDB
C:\USERS\ADMIN\DESKTOP\CYBER_ELITE_CPP_TEMPERATURES\TEMPERATURES\DEBUG\CELSIUS.OBJ
C:\USERS\ADMIN\DESKTOP\CYBER_ELITE_CPP_TEMPERATURES\TEMPERATURES\DEBUG\MAIN.OBJ
^C:\USERS\ADMIN\DESKTOP\CYBER_ELITE_CPP_TEMPERATURES\TEMPERATURES\CELSIUS.CPP|C:\USERS\ADMIN\DESKTOP\CYBER_ELITE_CPP_TEMPERATURES\TEMPERATURES\FAHRENHEIT.CPP
C:\USERS\ADMIN\DESKTOP\CYBER_ELITE_CPP_TEMPERATURES\TEMPERATURES\DEBUG\VC140.PDB
C:\USERS\ADMIN\DESKTOP\CYBER_ELITE_CPP_TEMPERATURES\TEMPERATURES\DEBUG\VC140.IDB
C:\USERS\ADMIN\DESKTOP\CYBER_ELITE_CPP_TEMPERATURES\TEMPERATURES\DEBUG\CELSIUS.OBJ
C:\USERS\ADMIN\DESKTOP\CYBER_ELITE_CPP_TEMPERATURES\TEMPERATURES\DEBUG\FAHRENHEIT.OBJ
^C:\USERS\ADMIN\DESKTOP\CYBER_ELITE_CPP_TEMPERATURES\TEMPERATURES\FAHRENHEIT.CPP|C:\USERS\ADMIN\DESKTOP\CYBER_ELITE_CPP_TEMPERATURES\TEMPERATURES\MAIN.CPP
C:\USERS\ADMIN\DESKTOP\CYBER_ELITE_CPP_TEMPERATURES\TEMPERATURES\DEBUG\VC140.PDB
C:\USERS\ADMIN\DESKTOP\CYBER_ELITE_CPP_TEMPERATURES\TEMPERATURES\DEBUG\VC140.IDB
C:\USERS\ADMIN\DESKTOP\CYBER_ELITE_CPP_TEMPERATURES\TEMPERATURES\DEBUG\FAHRENHEIT.OBJ
C:\USERS\ADMIN\DESKTOP\CYBER_ELITE_CPP_TEMPERATURES\TEMPERATURES\DEBUG\MAIN.OBJ
